<svg width="19" height="11" viewBox="0 0 19 11" fill="none" xmlns="http://www.w3.org/2000/svg">
<path fill-rule="evenodd" clip-rule="evenodd" d="M18.4943 0.277102C18.8352 0.618082 18.8352 1.1862 18.4943 1.52705L9.99991 10.0214C9.85787 10.1634 9.63057 10.2487 9.40339 10.2771H9.31825C9.09093 10.2487 8.89212 10.1634 8.75009 10.0214L0.255735 1.52705C-0.0852445 1.18607 -0.0852445 0.617948 0.255735 0.277102C0.596715 -0.0922365 1.16483 -0.0922365 1.53421 0.277102L9.375 8.11789L17.2158 0.277102C17.5568 -0.0922365 18.1533 -0.0922365 18.4943 0.277102Z" fill="#FF0000"/>
</svg>
