<svg width="24" height="24" viewBox="0 0 24 24" fill="none" xmlns="http://www.w3.org/2000/svg">
<path fill-rule="evenodd" clip-rule="evenodd" d="M21.5448 19.3493L19.4758 21.4206C19.0071 21.8897 18.3056 22.0126 17.6677 21.9996C16.7444 21.9807 15.7617 21.6867 14.9111 21.3441C13.6411 20.8327 12.426 20.1222 11.3068 19.3373C10.0209 18.4356 8.8159 17.4019 7.70599 16.2918C6.59625 15.1821 5.5625 13.9775 4.66095 12.6918C3.87629 11.5731 3.16621 10.3587 2.65586 9.08864C2.31394 8.2377 2.01959 7.25468 2.00091 6.33159C1.98789 5.69365 2.11077 4.99345 2.57957 4.52434L4.6486 2.45313C4.94193 2.15962 5.33359 2 5.74829 2C6.1635 2 6.55415 2.15944 6.84786 2.45313L8.97916 4.58443C9.2725 4.87777 9.43442 5.26925 9.43442 5.684C9.43442 6.09987 9.27448 6.49071 8.97946 6.78322L8.77194 6.99308C8.51533 7.25252 8.35923 7.5831 8.29244 7.94036C8.17107 8.59082 8.3462 9.29483 8.58795 9.89686C9.06877 11.0936 9.94511 12.2395 10.8517 13.1461C11.7577 14.0521 12.9052 14.9306 14.1009 15.412C14.7036 15.6545 15.4094 15.8305 16.0606 15.7096C16.4162 15.6437 16.7503 15.4871 17.0062 15.2285L17.2142 15.0181C17.5085 14.7259 17.8987 14.5653 18.3138 14.5653C18.729 14.5653 19.1196 14.7248 19.4133 15.0184L21.5446 17.1501C22.152 17.7571 22.1515 18.7421 21.5448 19.3493Z" fill="#005FF9"/>
</svg>
