<svg width="24" height="24" viewBox="0 0 24 24" fill="none" xmlns="http://www.w3.org/2000/svg">
<path fill-rule="evenodd" clip-rule="evenodd" d="M1.5 12C1.5 14.7848 2.60625 17.4555 4.57538 19.4246C6.54451 21.3938 9.21523 22.5 12 22.5C14.7848 22.5 17.4555 21.3938 19.4246 19.4246C21.3938 17.4555 22.5 14.7848 22.5 12C22.5 9.21523 21.3938 6.54451 19.4246 4.57538C17.4555 2.60625 14.7848 1.5 12 1.5C9.21523 1.5 6.54451 2.60625 4.57538 4.57538C2.60625 6.54451 1.5 9.21523 1.5 12ZM18.3446 17.9528C18.2815 18.02 18.2173 18.0864 18.1518 18.1518C17.1319 19.1718 15.8847 19.9123 14.5294 20.3242C15.1152 19.4868 15.5879 18.3553 15.9234 17.0277C16.8202 17.2521 17.6402 17.565 18.3446 17.9528ZM19.4417 16.5068C20.1042 15.4128 20.5201 14.1815 20.6534 12.9H16.4834C16.453 13.7183 16.3812 14.5094 16.2713 15.2602C17.4073 15.5366 18.4511 15.9394 19.3484 16.4532C19.3796 16.4708 19.4108 16.4887 19.4417 16.5068ZM14.4911 14.9409C14.585 14.2977 14.6506 13.6136 14.6809 12.9H9.31908C9.35199 13.6737 9.42634 14.4129 9.53327 15.1028C10.4897 14.9214 11.5008 14.826 12.5372 14.826C13.201 14.826 13.8549 14.865 14.4911 14.9409ZM9.90263 16.8641C10.4374 18.836 11.2483 20.1 12 20.1C12.7709 20.1 13.6041 18.7704 14.1379 16.7112C13.6172 16.6543 13.0817 16.6248 12.5372 16.6248C11.6233 16.6248 10.7358 16.7082 9.90263 16.8641ZM8.15476 17.3243C8.48392 18.5241 8.92889 19.5499 9.47063 20.3242C8.21131 19.9415 7.04543 19.2751 6.06839 18.3644C6.65394 17.9522 7.36098 17.601 8.15476 17.3243ZM7.77396 15.5537C7.63831 14.7165 7.55099 13.8257 7.5166 12.9H3.34664C3.50038 14.3786 4.0304 15.7904 4.88129 17.0015C5.68934 16.4046 6.67325 15.9157 7.77396 15.5537ZM3.34665 11.1H7.51661C7.55075 10.1809 7.63706 9.29632 7.77103 8.46444C6.66749 8.10119 5.68146 7.61045 4.87246 7.01112C4.02675 8.2194 3.49987 9.62647 3.34665 11.1ZM6.05674 5.64644C6.64338 6.06137 7.35288 6.41486 8.14999 6.69311C8.47961 5.4858 8.92627 4.45388 9.47063 3.67579C8.20629 4.06 7.03615 4.73022 6.05674 5.64644ZM9.53041 8.91578C9.42501 9.6003 9.3517 10.3331 9.31908 11.1H14.6809C14.6509 10.3933 14.5863 9.71558 14.4938 9.07788C13.8568 9.15398 13.202 9.19315 12.5372 9.19315C11.4998 9.19315 10.4877 9.09755 9.53041 8.91578ZM14.1427 7.30736C13.6205 7.36467 13.0834 7.39435 12.5372 7.39435C11.6215 7.39435 10.7323 7.31061 9.89771 7.15412C10.4325 5.17178 11.246 3.9 12 3.9C12.7732 3.9 13.6091 5.23756 14.1427 7.30736ZM16.274 8.7582C16.3824 9.50353 16.4532 10.2883 16.4834 11.1H20.6533C20.5207 9.82401 20.1078 8.59787 19.4504 7.50749C19.4165 7.52722 19.3825 7.54671 19.3484 7.56595C18.4518 8.0793 17.4089 8.48189 16.274 8.7582ZM18.3564 6.05982C17.6506 6.44996 16.828 6.76469 15.9279 6.99031C15.5922 5.65488 15.1179 4.517 14.5294 3.67579C15.8847 4.08767 17.1319 4.82822 18.1518 5.84817C18.2213 5.91768 18.2895 5.98824 18.3564 6.05982Z" fill="#005FF9"/>
</svg>
