<svg width="14" height="24" viewBox="0 0 14 24" fill="none" xmlns="http://www.w3.org/2000/svg">
<path fill-rule="evenodd" clip-rule="evenodd" d="M1.20049 0.327341C1.63695 -0.109114 2.36414 -0.109114 2.80042 0.327341L13.6732 11.2001C13.855 11.3819 13.9642 11.6729 14.0005 11.9637V12.0726C13.9642 12.3636 13.855 12.6181 13.6732 12.7999L2.80042 23.6727C2.36397 24.1091 1.63677 24.1091 1.20049 23.6727C0.727738 23.2362 0.727738 22.509 1.20049 22.0362L11.2367 12L1.20049 1.96379C0.727738 1.52733 0.727738 0.763795 1.20049 0.327341Z" fill="white"/>
</svg>
