<svg width="16" height="12" viewBox="0 0 16 12" fill="none" xmlns="http://www.w3.org/2000/svg">
<g clip-path="url(#clip0_312_594)">
<path d="M9.3 11.275C9.1 11.075 9.004 10.8333 9.012 10.55C9.02 10.2667 9.12434 10.025 9.325 9.82499L12.15 6.99999H1C0.71667 6.99999 0.479004 6.90399 0.287004 6.71199C0.0950036 6.51999 -0.000663206 6.28265 3.4602e-06 5.99999C3.4602e-06 5.71665 0.0960036 5.47899 0.288004 5.28699C0.480004 5.09499 0.717337 4.99932 1 4.99999H12.15L9.3 2.14999C9.1 1.94999 9 1.71232 9 1.43699C9 1.16165 9.1 0.924321 9.3 0.724988C9.5 0.524988 9.73767 0.424988 10.013 0.424988C10.2883 0.424988 10.5257 0.524988 10.725 0.724988L15.3 5.29999C15.4 5.39999 15.471 5.50832 15.513 5.62499C15.555 5.74165 15.5757 5.86665 15.575 5.99999C15.575 6.13332 15.554 6.25832 15.512 6.37499C15.47 6.49165 15.3993 6.59999 15.3 6.69999L10.7 11.3C10.5167 11.4833 10.2877 11.575 10.013 11.575C9.73834 11.575 9.50067 11.475 9.3 11.275Z" fill="white"/>
</g>
<defs>
<clipPath id="clip0_312_594">
<rect width="16" height="12" fill="white"/>
</clipPath>
</defs>
</svg>
